ISB/Laboratorios/Programación/PythonPlotting/Arduino/Osciloscopio/TEK00000.CSV

Model,TBS1102C
Firmware Version,v2015-08-04-prequal4ch70_v1.3

Point Format,Y
Horizontal Units,S
Horizontal Scale,0.02
Sample Interval,0.00016
Filter Frequency,2e+08
Record Length,2000
Gating,0.0% to 100.0%
Probe Attenuation,1
Vertical Units,V
Vertical Offset,0
Vertical Scale,2
Label,
TIME,CH1
-1.664e-01,4.64
-1.662e-01,4.64
-1.661e-01,4.64
-1.659e-01,4.72
-1.658e-01,4.64
-1.656e-01,4.72
-1.654e-01,4.72
-1.653e-01,4.72
-1.651e-01,4.72
-1.650e-01,4.72
-1.648e-01,4.72
-1.646e-01,4.72
-1.645e-01,4.8
-1.643e-01,4.8
-1.642e-01,4.8
-1.640e-01,4.8
-1.638e-01,4.8
-1.637e-01,4.8
-1.635e-01,4.8
-1.634e-01,4.8
-1.632e-01,4.88
-1.630e-01,4.8
-1.629e-01,4.88
-1.627e-01,4.88
-1.626e-01,4.88
-1.624e-01,4.88
-1.622e-01,4.88
-1.621e-01,4.88
-1.619e-01,4.88
-1.618e-01,4.88
-1.616e-01,4.88
-1.614e-01,4.88
-1.613e-01,4.88
-1.611e-01,4.88
-1.610e-01,4.96
-1.608e-01,4.88
-1.606e-01,4.88
-1.605e-01,4.88
-1.603e-01,4.96
-1.602e-01,4.88
-1.600e-01,4.96
-1.598e-01,4.96
-1.597e-01,4.88
-1.595e-01,4.96
-1.594e-01,4.88
-1.592e-01,4.88
-1.590e-01,4.96
-1.589e-01,4.96
-1.587e-01,4.88
-1.586e-01,4.96
-1.584e-01,4.96
-1.582e-01,4.88
-1.581e-01,4.96
-1.579e-01,4.88
-1.578e-01,4.96
-1.576e-01,4.88
-1.574e-01,4.88
-1.573e-01,4.88
-1.571e-01,4.88
-1.570e-01,4.96
-1.568e-01,4.88
-1.566e-01,4.88
-1.565e-01,4.88
-1.563e-01,4.88
-1.562e-01,4.88
-1.560e-01,4.88
-1.558e-01,4.88
-1.557e-01,4.88
-1.555e-01,4.88
-1.554e-01,4.88
-1.552e-01,4.88
-1.550e-01,4.88
-1.549e-01,4.88
-1.547e-01,4.88
-1.546e-01,4.88
-1.544e-01,4.8
-1.542e-01,4.8
-1.541e-01,4.8
-1.539e-01,4.8
-1.538e-01,4.8
-1.536e-01,4.8
-1.534e-01,4.88
-1.533e-01,4.8
-1.531e-01,4.8
-1.530e-01,4.8
-1.528e-01,4.8
-1.526e-01,4.8
-1.525e-01,4.72
-1.523e-01,4.72
-1.522e-01,4.64
-1.520e-01,4.72
-1.518e-01,4.72
-1.517e-01,4.72
-1.515e-01,4.64
-1.514e-01,4.72
-1.512e-01,4.64
-1.510e-01,4.72
-1.509e-01,4.64
-1.507e-01,4.64
-1.506e-01,4.56
-1.504e-01,4.64
-1.502e-01,4.56
-1.501e-01,4.56
-1.499e-01,4.56
-1.498e-01,4.56
-1.496e-01,4.56
-1.494e-01,4.48
-1.493e-01,4.48
-1.491e-01,4.48
-1.490e-01,4.48
-1.488e-01,4.48
-1.486e-01,4.48
-1.485e-01,4.4
-1.483e-01,4.4
-1.482e-01,4.4
-1.480e-01,4.32
-1.478e-01,4.4
-1.477e-01,4.4
-1.475e-01,4.32
-1.474e-01,4.32
-1.472e-01,4.32
-1.470e-01,4.32
-1.469e-01,4.24
-1.467e-01,4.24
-1.466e-01,4.24
-1.464e-01,4.24
-1.462e-01,4.16
-1.461e-01,4.16
-1.459e-01,4.16
-1.458e-01,4.16
-1.456e-01,4.16
-1.454e-01,4.08
-1.453e-01,4.08
-1.451e-01,4.08
-1.450e-01,4.08
-1.448e-01,4.08
-1.446e-01,4.08
-1.445e-01,4
-1.443e-01,4
-1.442e-01,4
-1.440e-01,3.92
-1.438e-01,3.92
-1.437e-01,3.92
-1.435e-01,3.92
-1.434e-01,3.84
-1.432e-01,3.84
-1.430e-01,3.84
-1.429e-01,3.76
-1.427e-01,3.76
-1.426e-01,3.76
-1.424e-01,3.76
-1.422e-01,3.68
-1.421e-01,3.68
-1.419e-01,3.68
-1.418e-01,3.6
-1.416e-01,3.6
-1.414e-01,3.6
-1.413e-01,3.6
-1.411e-01,3.6
-1.410e-01,3.52
-1.408e-01,3.52
-1.406e-01,3.52
-1.405e-01,3.44
-1.403e-01,3.52
-1.402e-01,3.44
-1.400e-01,3.44
-1.398e-01,3.44
-1.397e-01,3.36
-1.395e-01,3.36
-1.394e-01,3.36
-1.392e-01,3.28
-1.390e-01,3.2
-1.389e-01,3.28
-1.387e-01,3.28
-1.386e-01,3.2
-1.384e-01,3.2
-1.382e-01,3.2
-1.381e-01,3.12
-1.379e-01,3.12
-1.378e-01,3.12
-1.376e-01,3.04
-1.374e-01,3.04
-1.373e-01,3.04
-1.371e-01,3.04
-1.370e-01,3.04
-1.368e-01,2.96
-1.366e-01,2.96
-1.365e-01,2.96
-1.363e-01,2.88
-1.362e-01,2.88
-1.360e-01,2.8
-1.358e-01,2.8
-1.357e-01,2.8
-1.355e-01,2.72
-1.354e-01,2.72
-1.352e-01,2.72
-1.350e-01,2.72
-1.349e-01,2.64
-1.347e-01,2.64
-1.346e-01,2.64
-1.344e-01,2.56
-1.342e-01,2.56
-1.341e-01,2.56
-1.339e-01,2.56
-1.338e-01,2.48
-1.336e-01,2.48
-1.334e-01,2.48
-1.333e-01,2.4
-1.331e-01,2.4
-1.330e-01,2.4
-1.328e-01,2.32
-1.326e-01,2.32
-1.325e-01,2.32
-1.323e-01,2.32
-1.322e-01,2.24
-1.320e-01,2.24
-1.318e-01,2.16
-1.317e-01,2.16
-1.315e-01,2.16
-1.314e-01,2.16
-1.312e-01,2.08
-1.310e-01,2.08
-1.309e-01,2
-1.307e-01,2
-1.306e-01,2
-1.304e-01,1.92
-1.302e-01,1.92
-1.301e-01,1.92
-1.299e-01,1.92
-1.298e-01,1.92
-1.296e-01,1.84
-1.294e-01,1.84
-1.293e-01,1.84
-1.291e-01,1.84
-1.290e-01,1.76
-1.288e-01,1.68
-1.286e-01,1.68
-1.285e-01,1.68
-1.283e-01,1.68
-1.282e-01,1.68
-1.280e-01,1.6
-1.278e-01,1.6
-1.277e-01,1.6
-1.275e-01,1.6
-1.274e-01,1.6
-1.272e-01,1.52
-1.270e-01,1.52
-1.269e-01,1.44
-1.267e-01,1.44
-1.266e-01,1.44
-1.264e-01,1.44
-1.262e-01,1.36
-1.261e-01,1.36
-1.259e-01,1.28
-1.258e-01,1.28
-1.256e-01,1.28
-1.254e-01,1.28
-1.253e-01,1.28
-1.251e-01,1.28
-1.250e-01,1.2
-1.248e-01,1.2
-1.246e-01,1.12
-1.245e-01,1.12
-1.243e-01,1.12
-1.242e-01,1.12
-1.240e-01,1.12
-1.238e-01,1.04
-1.237e-01,1.04
-1.235e-01,1.04
-1.234e-01,1.04
-1.232e-01,0.96
-1.230e-01,0.96
-1.229e-01,0.96
-1.227e-01,0.96
-1.226e-01,0.88
-1.224e-01,0.96
-1.222e-01,0.88
-1.221e-01,0.88
-1.219e-01,0.88
-1.218e-01,0.8
-1.216e-01,0.8
-1.214e-01,0.8
-1.213e-01,0.8
-1.211e-01,0.8
-1.210e-01,0.72
-1.208e-01,0.72
-1.206e-01,0.64
-1.205e-01,0.64
-1.203e-01,0.64
-1.202e-01,0.64
-1.200e-01,0.64
-1.198e-01,0.64
-1.197e-01,0.56
-1.195e-01,0.56
-1.194e-01,0.56
-1.192e-01,0.56
-1.190e-01,0.48
-1.189e-01,0.56
-1.187e-01,0.48
-1.186e-01,0.48
-1.184e-01,0.48
-1.182e-01,0.48
-1.181e-01,0.48
-1.179e-01,0.4
-1.178e-01,0.4
-1.176e-01,0.4
-1.174e-01,0.32
-1.173e-01,0.32
-1.171e-01,0.4
-1.170e-01,0.4
-1.168e-01,0.32
-1.166e-01,0.32
-1.165e-01,0.32
-1.163e-01,0.32
-1.162e-01,0.32
-1.160e-01,0.32
-1.158e-01,0.24
-1.157e-01,0.24
-1.155e-01,0.24
-1.154e-01,0.24
-1.152e-01,0.24
-1.150e-01,0.24
-1.149e-01,0.24
-1.147e-01,0.24
-1.146e-01,0.16
-1.144e-01,0.16
-1.142e-01,0.16
-1.141e-01,0.16
-1.139e-01,0.16
-1.138e-01,0.16
-1.136e-01,0.16
-1.134e-01,0.16
-1.133e-01,0.16
-1.131e-01,0.08
-1.130e-01,0.08
-1.128e-01,0.08
-1.126e-01,0.08
-1.125e-01,0.08
-1.123e-01,0.08
-1.122e-01,0.08
-1.120e-01,0.08
-1.118e-01,0.08
-1.117e-01,0.08
-1.115e-01,0.08
-1.114e-01,0.08
-1.112e-01,0.08
-1.110e-01,0.08
-1.109e-01,0.08
-1.107e-01,0.08
-1.106e-01,0
-1.104e-01,0.08
-1.102e-01,0.08
-1.101e-01,0
-1.099e-01,0
-1.098e-01,0
-1.096e-01,0
-1.094e-01,0
-1.093e-01,0
-1.091e-01,0
-1.090e-01,0
-1.088e-01,0.08
-1.086e-01,0.08
-1.085e-01,0.08
-1.083e-01,0
-1.082e-01,0
-1.080e-01,0.08
-1.078e-01,0.08
-1.077e-01,0
-1.075e-01,0.08
-1.074e-01,0.08
-1.072e-01,0.08
-1.070e-01,0
-1.069e-01,0.08
-1.067e-01,0.08
-1.066e-01,0
-1.064e-01,0
-1.062e-01,0.08
-1.061e-01,0.08
-1.059e-01,0.08
-1.058e-01,0.08
-1.056e-01,0
-1.054e-01,0.08
-1.053e-01,0.08
-1.051e-01,0.08
-1.050e-01,0.08
-1.048e-01,0.08
-1.046e-01,0.08
-1.045e-01,0.08
-1.043e-01,0.08
-1.042e-01,0.16
-1.040e-01,0.16
-1.038e-01,0.16
-1.037e-01,0.16
-1.035e-01,0.08
-1.034e-01,0.16
-1.032e-01,0.16
-1.030e-01,0.16
-1.029e-01,0.24
-1.027e-01,0.16
-1.026e-01,0.24
-1.024e-01,0.24
-1.022e-01,0.24
-1.021e-01,0.24
-1.019e-01,0.24
-1.018e-01,0.24
-1.016e-01,0.32
-1.014e-01,0.32
-1.013e-01,0.24
-1.011e-01,0.32
-1.010e-01,0.32
-1.008e-01,0.32
-1.006e-01,0.32
-1.005e-01,0.32
-1.003e-01,0.32
-1.002e-01,0.4
-1.000e-01,0.4
-9.984e-02,0.4
-9.968e-02,0.4
-9.952e-02,0.4
-9.936e-02,0.4
-9.920e-02,0.4
-9.904e-02,0.48
-9.888e-02,0.48
-9.872e-02,0.56
-9.856e-02,0.48
-9.840e-02,0.48
-9.824e-02,0.56
-9.808e-02,0.56
-9.792e-02,0.56
-9.776e-02,0.56
-9.760e-02,0.64
-9.744e-02,0.64
-9.728e-02,0.64
-9.712e-02,0.64
-9.696e-02,0.72
-9.680e-02,0.64
-9.664e-02,0.72
-9.648e-02,0.72
-9.632e-02,0.72
-9.616e-02,0.72
-9.600e-02,0.72
-9.584e-02,0.8
-9.568e-02,0.88
-9.552e-02,0.88
-9.536e-02,0.88
-9.520e-02,0.88
-9.504e-02,0.88
-9.488e-02,0.96
-9.472e-02,0.96
-9.456e-02,0.96
-9.440e-02,0.96
-9.424e-02,1.04
-9.408e-02,0.96
-9.392e-02,0.96
-9.376e-02,1.04
-9.360e-02,1.12
-9.344e-02,1.12
-9.328e-02,1.12
-9.312e-02,1.12
-9.296e-02,1.12
-9.280e-02,1.2
-9.264e-02,1.2
-9.248e-02,1.2
-9.232e-02,1.2
-9.216e-02,1.28
-9.200e-02,1.28
-9.184e-02,1.28
-9.168e-02,1.28
-9.152e-02,1.28
-9.136e-02,1.36
-9.120e-02,1.36
-9.104e-02,1.44
-9.088e-02,1.44
-9.072e-02,1.44
-9.056e-02,1.44
-9.040e-02,1.52
-9.024e-02,1.52
-9.008e-02,1.6
-8.992e-02,1.6
-8.976e-02,1.6
-8.960e-02,1.6
-8.944e-02,1.6
-8.928e-02,1.68
-8.912e-02,1.68
-8.896e-02,1.68
-8.880e-02,1.76
-8.864e-02,1.76
-8.848e-02,1.76
-8.832e-02,1.84
-8.816e-02,1.84
-8.800e-02,1.84
-8.784e-02,1.84
-8.768e-02,1.92
-8.752e-02,1.92
-8.736e-02,1.92
-8.720e-02,2
-8.704e-02,2
-8.688e-02,2
-8.672e-02,2
-8.656e-02,2.08
-8.640e-02,2.08
-8.624e-02,2.08
-8.608e-02,2.08
-8.592e-02,2.16
-8.576e-02,2.24
-8.560e-02,2.24
-8.544e-02,2.24
-8.528e-02,2.24
-8.512e-02,2.24
-8.496e-02,2.32
-8.480e-02,2.32
-8.464e-02,2.4
-8.448e-02,2.4
-8.432e-02,2.4
-8.416e-02,2.48
-8.400e-02,2.48
-8.384e-02,2.48
-8.368e-02,2.48
-8.352e-02,2.56
-8.336e-02,2.56
-8.320e-02,2.56
-8.304e-02,2.64
-8.288e-02,2.64
-8.272e-02,2.64
-8.256e-02,2.64
-8.240e-02,2.72
-8.224e-02,2.72
-8.208e-02,2.72
-8.192e-02,2.8
-8.176e-02,2.8
-8.160e-02,2.8
-8.144e-02,2.88
-8.128e-02,2.88
-8.112e-02,2.88
-8.096e-02,2.88
-8.080e-02,2.96
-8.064e-02,2.96
-8.048e-02,3.04
-8.032e-02,3.04
-8.016e-02,3.04
-8.000e-02,3.04
-7.984e-02,3.12
-7.968e-02,3.12
-7.952e-02,3.12
-7.936e-02,3.2
-7.920e-02,3.2
-7.904e-02,3.2
-7.888e-02,3.2
-7.872e-02,3.2
-7.856e-02,3.28
-7.840e-02,3.28
-7.824e-02,3.28
-7.808e-02,3.36
-7.792e-02,3.36
-7.776e-02,3.36
-7.760e-02,3.44
-7.744e-02,3.44
-7.728e-02,3.52
-7.712e-02,3.52
-7.696e-02,3.44
-7.680e-02,3.52
-7.664e-02,3.52
-7.648e-02,3.52
-7.632e-02,3.52
-7.616e-02,3.6
-7.600e-02,3.6
-7.584e-02,3.6
-7.568e-02,3.68
-7.552e-02,3.68
-7.536e-02,3.68
-7.520e-02,3.68
-7.504e-02,3.68
-7.488e-02,3.76
-7.472e-02,3.76
-7.456e-02,3.76
-7.440e-02,3.84
-7.424e-02,3.84
-7.408e-02,3.92
-7.392e-02,3.84
-7.376e-02,3.92
-7.360e-02,3.92
-7.344e-02,3.92
-7.328e-02,4
-7.312e-02,4
-7.296e-02,4
-7.280e-02,4.08
-7.264e-02,4.08
-7.248e-02,4.08
-7.232e-02,4.08
-7.216e-02,4.16
-7.200e-02,4.16
-7.184e-02,4.16
-7.168e-02,4.16
-7.152e-02,4.16
-7.136e-02,4.16
-7.120e-02,4.24
-7.104e-02,4.24
-7.088e-02,4.24
-7.072e-02,4.24
-7.056e-02,4.24
-7.040e-02,4.24
-7.024e-02,4.32
-7.008e-02,4.32
-6.992e-02,4.32
-6.976e-02,4.4
-6.960e-02,4.32
-6.944e-02,4.4
-6.928e-02,4.4
-6.912e-02,4.4
-6.896e-02,4.48
-6.880e-02,4.4
-6.864e-02,4.48
-6.848e-02,4.48
-6.832e-02,4.48
-6.816e-02,4.48
-6.800e-02,4.56
-6.784e-02,4.56
-6.768e-02,4.56
-6.752e-02,4.56
-6.736e-02,4.56
-6.720e-02,4.64
-6.704e-02,4.64
-6.688e-02,4.64
-6.672e-02,4.64
-6.656e-02,4.64
-6.640e-02,4.64
-6.624e-02,4.64
-6.608e-02,4.64
-6.592e-02,4.64
-6.576e-02,4.64
-6.560e-02,4.72
-6.544e-02,4.72
-6.528e-02,4.72
-6.512e-02,4.72
-6.496e-02,4.72
-6.480e-02,4.8
-6.464e-02,4.8
-6.448e-02,4.8
-6.432e-02,4.8
-6.416e-02,4.8
-6.400e-02,4.8
-6.384e-02,4.72
-6.368e-02,4.8
-6.352e-02,4.8
-6.336e-02,4.88
-6.320e-02,4.88
-6.304e-02,4.8
-6.288e-02,4.8
-6.272e-02,4.88
-6.256e-02,4.88
-6.240e-02,4.88
-6.224e-02,4.88
-6.208e-02,4.88
-6.192e-02,4.88
-6.176e-02,4.96
-6.160e-02,4.88
-6.144e-02,4.88
-6.128e-02,4.88
-6.112e-02,4.88
-6.096e-02,4.96
-6.080e-02,4.88
-6.064e-02,4.96
-6.048e-02,4.88
-6.032e-02,4.96
-6.016e-02,4.88
-6.000e-02,4.88
-5.984e-02,4.88
-5.968e-02,4.88
-5.952e-02,4.96
-5.936e-02,4.96
-5.920e-02,4.88
-5.904e-02,4.96
-5.888e-02,4.96
-5.872e-02,4.96
-5.856e-02,4.88
-5.840e-02,4.96
-5.824e-02,4.88
-5.808e-02,4.88
-5.792e-02,4.88
-5.776e-02,4.88
-5.760e-02,4.96
-5.744e-02,4.88
-5.728e-02,4.88
-5.712e-02,4.88
-5.696e-02,4.88
-5.680e-02,4.96
-5.664e-02,4.88
-5.648e-02,4.96
-5.632e-02,4.88
-5.616e-02,4.88
-5.600e-02,4.96
-5.584e-02,4.88
-5.568e-02,4.88
-5.552e-02,4.88
-5.536e-02,4.88
-5.520e-02,4.88
-5.504e-02,4.88
-5.488e-02,4.88
-5.472e-02,4.88
-5.456e-02,4.8
-5.440e-02,4.8
-5.424e-02,4.8
-5.408e-02,4.8
-5.392e-02,4.8
-5.376e-02,4.8
-5.360e-02,4.8
-5.344e-02,4.8
-5.328e-02,4.8
-5.312e-02,4.8
-5.296e-02,4.72
-5.280e-02,4.8
-5.264e-02,4.72
-5.248e-02,4.72
-5.232e-02,4.72
-5.216e-02,4.72
-5.200e-02,4.72
-5.184e-02,4.72
-5.168e-02,4.64
-5.152e-02,4.72
-5.136e-02,4.72
-5.120e-02,4.72
-5.104e-02,4.64
-5.088e-02,4.64
-5.072e-02,4.64
-5.056e-02,4.64
-5.040e-02,4.64
-5.024e-02,4.56
-5.008e-02,4.56
-4.992e-02,4.56
-4.976e-02,4.56
-4.960e-02,4.56
-4.944e-02,4.48
-4.928e-02,4.48
-4.912e-02,4.48
-4.896e-02,4.48
-4.880e-02,4.48
-4.864e-02,4.48
-4.848e-02,4.4
-4.832e-02,4.4
-4.816e-02,4.4
-4.800e-02,4.4
-4.784e-02,4.4
-4.768e-02,4.4
-4.752e-02,4.32
-4.736e-02,4.32
-4.720e-02,4.32
-4.704e-02,4.24
-4.688e-02,4.32
-4.672e-02,4.24
-4.656e-02,4.24
-4.640e-02,4.24
-4.624e-02,4.24
-4.608e-02,4.16
-4.592e-02,4.16
-4.576e-02,4.16
-4.560e-02,4.16
-4.544e-02,4.08
-4.528e-02,4.16
-4.512e-02,4.08
-4.496e-02,4.08
-4.480e-02,4
-4.464e-02,4
-4.448e-02,4
-4.432e-02,4
-4.416e-02,3.92
-4.400e-02,3.92
-4.384e-02,4
-4.368e-02,3.92
-4.352e-02,3.92
-4.336e-02,3.84
-4.320e-02,3.84
-4.304e-02,3.84
-4.288e-02,3.84
-4.272e-02,3.84
-4.256e-02,3.76
-4.240e-02,3.76
-4.224e-02,3.76
-4.208e-02,3.68
-4.192e-02,3.68
-4.176e-02,3.68
-4.160e-02,3.68
-4.144e-02,3.6
-4.128e-02,3.6
-4.112e-02,3.6
-4.096e-02,3.52
-4.080e-02,3.52
-4.064e-02,3.52
-4.048e-02,3.52
-4.032e-02,3.44
-4.016e-02,3.44
-4.000e-02,3.44
-3.984e-02,3.36
-3.968e-02,3.44
-3.952e-02,3.36
-3.936e-02,3.36
-3.920e-02,3.28
-3.904e-02,3.28
-3.888e-02,3.28
-3.872e-02,3.28
-3.856e-02,3.2
-3.840e-02,3.2
-3.824e-02,3.2
-3.808e-02,3.2
-3.792e-02,3.04
-3.776e-02,3.12
-3.760e-02,3.04
-3.744e-02,3.04
-3.728e-02,2.96
-3.712e-02,2.96
-3.696e-02,2.96
-3.680e-02,2.96
-3.664e-02,2.88
-3.648e-02,2.96
-3.632e-02,2.88
-3.616e-02,2.88
-3.600e-02,2.8
-3.584e-02,2.8
-3.568e-02,2.8
-3.552e-02,2.8
-3.536e-02,2.72
-3.520e-02,2.72
-3.504e-02,2.64
-3.488e-02,2.64
-3.472e-02,2.64
-3.456e-02,2.56
-3.440e-02,2.56
-3.424e-02,2.56
-3.408e-02,2.56
-3.392e-02,2.56
-3.376e-02,2.48
-3.360e-02,2.48
-3.344e-02,2.48
-3.328e-02,2.48
-3.312e-02,2.4
-3.296e-02,2.4
-3.280e-02,2.32
-3.264e-02,2.32
-3.248e-02,2.32
-3.232e-02,2.32
-3.216e-02,2.24
-3.200e-02,2.24
-3.184e-02,2.24
-3.168e-02,2.16
-3.152e-02,2.16
-3.136e-02,2.08
-3.120e-02,2.08
-3.104e-02,2.08
-3.088e-02,2.08
-3.072e-02,2
-3.056e-02,2
-3.040e-02,2
-3.024e-02,2
-3.008e-02,1.92
-2.992e-02,1.92
-2.976e-02,1.84
-2.960e-02,1.84
-2.944e-02,1.84
-2.928e-02,1.84
-2.912e-02,1.76
-2.896e-02,1.76
-2.880e-02,1.68
-2.864e-02,1.68
-2.848e-02,1.68
-2.832e-02,1.68
-2.816e-02,1.68
-2.800e-02,1.68
-2.784e-02,1.6
-2.768e-02,1.6
-2.752e-02,1.6
-2.736e-02,1.52
-2.720e-02,1.52
-2.704e-02,1.52
-2.688e-02,1.52
-2.672e-02,1.44
-2.656e-02,1.44
-2.640e-02,1.44
-2.624e-02,1.44
-2.608e-02,1.36
-2.592e-02,1.28
-2.576e-02,1.28
-2.560e-02,1.28
-2.544e-02,1.28
-2.528e-02,1.2
-2.512e-02,1.2
-2.496e-02,1.2
-2.480e-02,1.12
-2.464e-02,1.12
-2.448e-02,1.12
-2.432e-02,1.12
-2.416e-02,1.12
-2.400e-02,1.12
-2.384e-02,1.04
-2.368e-02,0.96
-2.352e-02,1.04
-2.336e-02,1.04
-2.320e-02,0.96
-2.304e-02,0.96
-2.288e-02,0.96
-2.272e-02,0.96
-2.256e-02,0.88
-2.240e-02,0.96
-2.224e-02,0.88
-2.208e-02,0.8
-2.192e-02,0.8
-2.176e-02,0.8
-2.160e-02,0.8
-2.144e-02,0.8
-2.128e-02,0.8
-2.112e-02,0.72
-2.096e-02,0.72
-2.080e-02,0.72
-2.064e-02,0.72
-2.048e-02,0.64
-2.032e-02,0.64
-2.016e-02,0.64
-2.000e-02,0.64
-1.984e-02,0.64
-1.968e-02,0.56
-1.952e-02,0.64
-1.936e-02,0.56
-1.920e-02,0.56
-1.904e-02,0.56
-1.888e-02,0.56
-1.872e-02,0.56
-1.856e-02,0.48
-1.840e-02,0.48
-1.824e-02,0.48
-1.808e-02,0.4
-1.792e-02,0.4
-1.776e-02,0.4
-1.760e-02,0.4
-1.744e-02,0.4
-1.728e-02,0.4
-1.712e-02,0.4
-1.696e-02,0.32
-1.680e-02,0.32
-1.664e-02,0.32
-1.648e-02,0.32
-1.632e-02,0.24
-1.616e-02,0.32
-1.600e-02,0.32
-1.584e-02,0.24
-1.568e-02,0.24
-1.552e-02,0.24
-1.536e-02,0.24
-1.520e-02,0.24
-1.504e-02,0.16
-1.488e-02,0.24
-1.472e-02,0.24
-1.456e-02,0.24
-1.440e-02,0.16
-1.424e-02,0.16
-1.408e-02,0.16
-1.392e-02,0.16
-1.376e-02,0.16
-1.360e-02,0.16
-1.344e-02,0.16
-1.328e-02,0.16
-1.312e-02,0.08
-1.296e-02,0.08
-1.280e-02,0.08
-1.264e-02,0.08
-1.248e-02,0.08
-1.232e-02,0.08
-1.216e-02,0.08
-1.200e-02,0.08
-1.184e-02,0.08
-1.168e-02,0.08
-1.152e-02,0.08
-1.136e-02,0.08
-1.120e-02,0.08
-1.104e-02,0.08
-1.088e-02,0.08
-1.072e-02,0
-1.056e-02,0.08
-1.040e-02,0
-1.024e-02,0
-1.008e-02,0
-9.920e-03,0
-9.760e-03,0
-9.600e-03,0
-9.440e-03,0.08
-9.280e-03,0.08
-9.120e-03,0
-8.960e-03,0
-8.800e-03,0
-8.640e-03,0
-8.480e-03,0
-8.320e-03,0.08
-8.160e-03,0
-8.000e-03,0
-7.840e-03,0
-7.680e-03,0
-7.520e-03,0
-7.360e-03,0
-7.200e-03,0.08
-7.040e-03,0.08
-6.880e-03,0.08
-6.720e-03,0
-6.560e-03,0.08
-6.400e-03,0.08
-6.240e-03,0.08
-6.080e-03,0.08
-5.920e-03,0.08
-5.760e-03,0
-5.600e-03,0.08
-5.440e-03,0.08
-5.280e-03,0.08
-5.120e-03,0
-4.960e-03,0.08
-4.800e-03,0.08
-4.640e-03,0.08
-4.480e-03,0.16
-4.320e-03,0.16
-4.160e-03,0.08
-4.000e-03,0.16
-3.840e-03,0.08
-3.680e-03,0.16
-3.520e-03,0.16
-3.360e-03,0.16
-3.200e-03,0.16
-3.040e-03,0.24
-2.880e-03,0.16
-2.720e-03,0.24
-2.560e-03,0.24
-2.400e-03,0.24
-2.240e-03,0.16
-2.080e-03,0.24
-1.920e-03,0.24
-1.760e-03,0.24
-1.600e-03,0.24
-1.440e-03,0.32
-1.280e-03,0.32
-1.120e-03,0.32
-9.600e-04,0.32
-8.000e-04,0.32
-6.400e-04,0.32
-4.800e-04,0.32
-3.200e-04,0.32
-1.600e-04,0.4
-4.042e-15,0.4
1.600e-04,0.4
3.200e-04,0.48
4.800e-04,0.4
6.400e-04,0.48
8.000e-04,0.4
9.600e-04,0.4
1.120e-03,0.48
1.280e-03,0.48
1.440e-03,0.56
1.600e-03,0.56
1.760e-03,0.48
1.920e-03,0.56
2.080e-03,0.56
2.240e-03,0.56
2.400e-03,0.64
2.560e-03,0.64
2.720e-03,0.64
2.880e-03,0.64
3.040e-03,0.64
3.200e-03,0.72
3.360e-03,0.72
3.520e-03,0.72
3.680e-03,0.8
3.840e-03,0.72
4.000e-03,0.8
4.160e-03,0.8
4.320e-03,0.88
4.480e-03,0.88
4.640e-03,0.88
4.800e-03,0.88
4.960e-03,0.96
5.120e-03,0.96
5.280e-03,0.88
5.440e-03,0.96
5.600e-03,0.96
5.760e-03,1.04
5.920e-03,1.04
6.080e-03,0.96
6.240e-03,1.04
6.400e-03,1.04
6.560e-03,1.12
6.720e-03,1.12
6.880e-03,1.12
7.040e-03,1.12
7.200e-03,1.12
7.360e-03,1.2
7.520e-03,1.2
7.680e-03,1.2
7.840e-03,1.28
8.000e-03,1.28
8.160e-03,1.28
8.320e-03,1.28
8.480e-03,1.36
8.640e-03,1.36
8.800e-03,1.36
8.960e-03,1.44
9.120e-03,1.44
9.280e-03,1.44
9.440e-03,1.52
9.600e-03,1.52
9.760e-03,1.52
9.920e-03,1.52
1.008e-02,1.52
1.024e-02,1.6
1.040e-02,1.6
1.056e-02,1.68
1.072e-02,1.68
1.088e-02,1.68
1.104e-02,1.76
1.120e-02,1.76
1.136e-02,1.76
1.152e-02,1.76
1.168e-02,1.84
1.184e-02,1.84
1.200e-02,1.84
1.216e-02,1.84
1.232e-02,1.84
1.248e-02,1.92
1.264e-02,1.92
1.280e-02,2
1.296e-02,1.92
1.312e-02,2
1.328e-02,2
1.344e-02,2.08
1.360e-02,2.08
1.376e-02,2.08
1.392e-02,2.16
1.408e-02,2.16
1.424e-02,2.24
1.440e-02,2.24
1.456e-02,2.24
1.472e-02,2.24
1.488e-02,2.24
1.504e-02,2.32
1.520e-02,2.32
1.536e-02,2.4
1.552e-02,2.4
1.568e-02,2.4
1.584e-02,2.4
1.600e-02,2.48
1.616e-02,2.48
1.632e-02,2.48
1.648e-02,2.56
1.664e-02,2.56
1.680e-02,2.56
1.696e-02,2.64
1.712e-02,2.64
1.728e-02,2.64
1.744e-02,2.64
1.760e-02,2.72
1.776e-02,2.72
1.792e-02,2.72
1.808e-02,2.72
1.824e-02,2.8
1.840e-02,2.8
1.856e-02,2.88
1.872e-02,2.88
1.888e-02,2.88
1.904e-02,2.96
1.920e-02,2.96
1.936e-02,2.96
1.952e-02,3.04
1.968e-02,3.04
1.984e-02,3.04
2.000e-02,3.12
2.016e-02,3.12
2.032e-02,3.12
2.048e-02,3.12
2.064e-02,3.2
2.080e-02,3.2
2.096e-02,3.2
2.112e-02,3.2
2.128e-02,3.28
2.144e-02,3.28
2.160e-02,3.28
2.176e-02,3.36
2.192e-02,3.36
2.208e-02,3.36
2.224e-02,3.36
2.240e-02,3.44
2.256e-02,3.44
2.272e-02,3.44
2.288e-02,3.52
2.304e-02,3.52
2.320e-02,3.52
2.336e-02,3.52
2.352e-02,3.6
2.368e-02,3.6
2.384e-02,3.6
2.400e-02,3.6
2.416e-02,3.68
2.432e-02,3.68
2.448e-02,3.68
2.464e-02,3.68
2.480e-02,3.68
2.496e-02,3.76
2.512e-02,3.76
2.528e-02,3.76
2.544e-02,3.84
2.560e-02,3.84
2.576e-02,3.84
2.592e-02,3.92
2.608e-02,3.92
2.624e-02,3.92
2.640e-02,3.92
2.656e-02,4
2.672e-02,4
2.688e-02,3.92
2.704e-02,4
2.720e-02,4
2.736e-02,4.08
2.752e-02,4.08
2.768e-02,4.08
2.784e-02,4.08
2.800e-02,4.16
2.816e-02,4.16
2.832e-02,4.16
2.848e-02,4.16
2.864e-02,4.16
2.880e-02,4.16
2.896e-02,4.24
2.912e-02,4.24
2.928e-02,4.24
2.944e-02,4.24
2.960e-02,4.32
2.976e-02,4.32
2.992e-02,4.32
3.008e-02,4.4
3.024e-02,4.4
3.040e-02,4.4
3.056e-02,4.4
3.072e-02,4.4
3.088e-02,4.4
3.104e-02,4.4
3.120e-02,4.48
3.136e-02,4.48
3.152e-02,4.48
3.168e-02,4.48
3.184e-02,4.48
3.200e-02,4.56
3.216e-02,4.56
3.232e-02,4.56
3.248e-02,4.56
3.264e-02,4.56
3.280e-02,4.56
3.296e-02,4.64
3.312e-02,4.64
3.328e-02,4.64
3.344e-02,4.64
3.360e-02,4.64
3.376e-02,4.64
3.392e-02,4.64
3.408e-02,4.72
3.424e-02,4.72
3.440e-02,4.72
3.456e-02,4.72
3.472e-02,4.8
3.488e-02,4.8
3.504e-02,4.72
3.520e-02,4.8
3.536e-02,4.8
3.552e-02,4.8
3.568e-02,4.8
3.584e-02,4.8
3.600e-02,4.8
3.616e-02,4.88
3.632e-02,4.88
3.648e-02,4.88
3.664e-02,4.88
