Programación/Arduino/Lab2-G2/Osciloscopio/TEK00001.CSV

Model,TBS1102C
Firmware Version,v2015-08-04-prequal4ch70_v1.3

Point Format,Y
Horizontal Units,S
Horizontal Scale,0.002
Sample Interval,1.6e-05
Filter Frequency,2e+08
Record Length,2000
Gating,0.0% to 100.0%
Probe Attenuation,1
Vertical Units,V
Vertical Offset,0
Vertical Scale,2
Label,
TIME,CH1
-2.240e-02,2.64
-2.238e-02,2.56
-2.237e-02,2.56
-2.235e-02,2.56
-2.234e-02,2.48
-2.232e-02,2.48
-2.230e-02,2.32
-2.229e-02,2.32
-2.227e-02,2.32
-2.226e-02,2.24
-2.224e-02,2.24
-2.222e-02,2.16
-2.221e-02,2.08
-2.219e-02,2.08
-2.218e-02,2
-2.216e-02,2
-2.214e-02,1.92
-2.213e-02,1.92
-2.211e-02,1.92
-2.210e-02,1.84
-2.208e-02,1.84
-2.206e-02,1.76
-2.205e-02,1.76
-2.203e-02,1.68
-2.202e-02,1.68
-2.200e-02,1.6
-2.198e-02,1.6
-2.197e-02,1.6
-2.195e-02,1.52
-2.194e-02,1.52
-2.192e-02,1.44
-2.190e-02,1.44
-2.189e-02,1.36
-2.187e-02,1.36
-2.186e-02,1.36
-2.184e-02,1.28
-2.182e-02,1.2
-2.181e-02,1.2
-2.179e-02,1.2
-2.178e-02,1.12
-2.176e-02,1.12
-2.174e-02,1.12
-2.173e-02,1.04
-2.171e-02,1.04
-2.170e-02,1.04
-2.168e-02,0.96
-2.166e-02,0.96
-2.165e-02,0.96
-2.163e-02,0.88
-2.162e-02,0.88
-2.160e-02,0.88
-2.158e-02,0.8
-2.157e-02,0.8
-2.155e-02,0.8
-2.154e-02,0.72
-2.152e-02,0.72
-2.150e-02,0.72
-2.149e-02,0.64
-2.147e-02,0.64
-2.146e-02,0.56
-2.144e-02,0.56
-2.142e-02,0.56
-2.141e-02,0.56
-2.139e-02,0.48
-2.138e-02,0.48
-2.136e-02,0.48
-2.134e-02,0.48
-2.133e-02,0.4
-2.131e-02,0.4
-2.130e-02,0.4
-2.128e-02,0.4
-2.126e-02,0.32
-2.125e-02,0.32
-2.123e-02,0.32
-2.122e-02,0.32
-2.120e-02,0.32
-2.118e-02,0.24
-2.117e-02,0.24
-2.115e-02,0.24
-2.114e-02,0.24
-2.112e-02,0.24
-2.110e-02,0.24
-2.109e-02,0.16
-2.107e-02,0.16
-2.106e-02,0.16
-2.104e-02,0.16
-2.102e-02,0.16
-2.101e-02,0.16
-2.099e-02,0.08
-2.098e-02,0.16
-2.096e-02,0.08
-2.094e-02,0.08
-2.093e-02,0.08
-2.091e-02,0.08
-2.090e-02,0.08
-2.088e-02,0.08
-2.086e-02,0.08
-2.085e-02,0.08
-2.083e-02,0.08
-2.082e-02,0.08
-2.080e-02,0
-2.078e-02,0
-2.077e-02,0.08
-2.075e-02,0
-2.074e-02,0
-2.072e-02,0
-2.070e-02,0.08
-2.069e-02,0
-2.067e-02,0
-2.066e-02,0
-2.064e-02,0
-2.062e-02,0.08
-2.061e-02,0
-2.059e-02,0
-2.058e-02,0
-2.056e-02,0
-2.054e-02,0
-2.053e-02,0
-2.051e-02,0
-2.050e-02,0.08
-2.048e-02,0.08
-2.046e-02,0.08
-2.045e-02,0
-2.043e-02,0.08
-2.042e-02,0
-2.040e-02,0.08
-2.038e-02,0.08
-2.037e-02,0.08
-2.035e-02,0.08
-2.034e-02,0.16
-2.032e-02,0.16
-2.030e-02,0.16
-2.029e-02,0.16
-2.027e-02,0.16
-2.026e-02,0.16
-2.024e-02,0.24
-2.022e-02,0.16
-2.021e-02,0.24
-2.019e-02,0.24
-2.018e-02,0.24
-2.016e-02,0.24
-2.014e-02,0.24
-2.013e-02,0.32
-2.011e-02,0.32
-2.010e-02,0.24
-2.008e-02,0.32
-2.006e-02,0.4
-2.005e-02,0.32
-2.003e-02,0.4
-2.002e-02,0.4
-2.000e-02,0.4
-1.998e-02,0.4
-1.997e-02,0.48
-1.995e-02,0.48
-1.994e-02,0.56
-1.992e-02,0.56
-1.990e-02,0.48
-1.989e-02,0.64
-1.987e-02,0.64
-1.986e-02,0.64
-1.984e-02,0.72
-1.982e-02,0.72
-1.981e-02,0.64
-1.979e-02,0.8
-1.978e-02,0.8
-1.976e-02,0.8
-1.974e-02,0.8
-1.973e-02,0.88
-1.971e-02,0.88
-1.970e-02,0.96
-1.968e-02,0.96
-1.966e-02,0.96
-1.965e-02,0.96
-1.963e-02,1.04
-1.962e-02,1.04
-1.960e-02,1.04
-1.958e-02,1.12
-1.957e-02,1.12
-1.955e-02,1.2
-1.954e-02,1.2
-1.952e-02,1.2
-1.950e-02,1.28
-1.949e-02,1.28
-1.947e-02,1.36
-1.946e-02,1.36
-1.944e-02,1.44
-1.942e-02,1.44
-1.941e-02,1.44
-1.939e-02,1.52
-1.938e-02,1.52
-1.936e-02,1.6
-1.934e-02,1.68
-1.933e-02,1.6
-1.931e-02,1.68
-1.930e-02,1.68
-1.928e-02,1.76
-1.926e-02,1.76
-1.925e-02,1.84
-1.923e-02,1.92
-1.922e-02,1.92
-1.920e-02,1.92
-1.918e-02,2
-1.917e-02,2
-1.915e-02,2.08
-1.914e-02,2.08
-1.912e-02,2.16
-1.910e-02,2.16
-1.909e-02,2.24
-1.907e-02,2.32
-1.906e-02,2.32
-1.904e-02,2.32
-1.902e-02,2.4
-1.901e-02,2.48
-1.899e-02,2.56
-1.898e-02,2.48
-1.896e-02,2.56
-1.894e-02,2.64
-1.893e-02,2.64
-1.891e-02,2.72
-1.890e-02,2.72
-1.888e-02,2.8
-1.886e-02,2.8
-1.885e-02,2.88
-1.883e-02,2.96
-1.882e-02,2.96
-1.880e-02,3.04
-1.878e-02,3.04
-1.877e-02,3.12
-1.875e-02,3.12
-1.874e-02,3.2
-1.872e-02,3.28
-1.870e-02,3.28
-1.869e-02,3.36
-1.867e-02,3.36
-1.866e-02,3.44
-1.864e-02,3.52
-1.862e-02,3.52
-1.861e-02,3.52
-1.859e-02,3.6
-1.858e-02,3.68
-1.856e-02,3.68
-1.854e-02,3.76
-1.853e-02,3.76
-1.851e-02,3.84
-1.850e-02,3.92
-1.848e-02,3.92
-1.846e-02,4
-1.845e-02,4
-1.843e-02,4.08
-1.842e-02,4.08
-1.840e-02,4.24
-1.838e-02,4.16
-1.837e-02,4.24
-1.835e-02,4.32
-1.834e-02,4.4
-1.832e-02,4.4
-1.830e-02,4.48
-1.829e-02,4.56
-1.827e-02,4.56
-1.826e-02,4.64
-1.824e-02,4.64
-1.822e-02,4.72
-1.821e-02,4.8
-1.819e-02,4.88
-1.818e-02,4.88
-1.816e-02,4.88
-1.814e-02,4.96
-1.813e-02,5.04
-1.811e-02,5.04
-1.810e-02,5.12
-1.808e-02,5.2
-1.806e-02,5.2
-1.805e-02,5.28
-1.803e-02,5.28
-1.802e-02,5.36
-1.800e-02,5.44
-1.798e-02,5.52
-1.797e-02,5.6
-1.795e-02,5.6
-1.794e-02,5.6
-1.792e-02,5.68
-1.790e-02,5.76
-1.789e-02,5.76
-1.787e-02,5.84
-1.786e-02,5.84
-1.784e-02,5.92
-1.782e-02,6
-1.781e-02,6
-1.779e-02,6.08
-1.778e-02,6.08
-1.776e-02,6.16
-1.774e-02,6.24
-1.773e-02,6.24
-1.771e-02,6.32
-1.770e-02,6.4
-1.768e-02,6.4
-1.766e-02,6.4
-1.765e-02,6.48
-1.763e-02,6.56
-1.762e-02,6.56
-1.760e-02,6.64
-1.758e-02,6.72
-1.757e-02,6.72
-1.755e-02,6.8
-1.754e-02,6.88
-1.752e-02,6.88
-1.750e-02,6.96
-1.749e-02,6.96
-1.747e-02,7.04
-1.746e-02,7.12
-1.744e-02,7.12
-1.742e-02,7.12
-1.741e-02,7.2
-1.739e-02,7.2
-1.738e-02,7.28
-1.736e-02,7.36
-1.734e-02,7.36
-1.733e-02,7.44
-1.731e-02,7.52
-1.730e-02,7.52
-1.728e-02,7.52
-1.726e-02,7.68
-1.725e-02,7.68
-1.723e-02,7.68
-1.722e-02,7.68
-1.720e-02,7.76
-1.718e-02,7.84
-1.717e-02,7.84
-1.715e-02,7.92
-1.714e-02,8
-1.712e-02,7.92
-1.710e-02,8
-1.709e-02,8
-1.707e-02,8.08
-1.706e-02,8.16
-1.704e-02,8.16
-1.702e-02,8.16
-1.701e-02,8.24
-1.699e-02,8.24
-1.698e-02,8.32
-1.696e-02,8.4
-1.694e-02,8.4
-1.693e-02,8.4
-1.691e-02,8.48
-1.690e-02,8.48
-1.688e-02,8.48
-1.686e-02,8.56
-1.685e-02,8.56
-1.683e-02,8.64
-1.682e-02,8.64
-1.680e-02,8.72
-1.678e-02,8.8
-1.677e-02,8.8
-1.675e-02,8.8
-1.674e-02,8.8
-1.672e-02,8.88
-1.670e-02,8.88
-1.669e-02,8.96
-1.667e-02,8.96
-1.666e-02,8.96
-1.664e-02,8.96
-1.662e-02,9.04
-1.661e-02,9.04
-1.659e-02,9.12
-1.658e-02,9.12
-1.656e-02,9.2
-1.654e-02,9.2
-1.653e-02,9.28
-1.651e-02,9.2
-1.650e-02,9.2
-1.648e-02,9.28
-1.646e-02,9.36
-1.645e-02,9.28
-1.643e-02,9.36
-1.642e-02,9.36
-1.640e-02,9.36
-1.638e-02,9.44
-1.637e-02,9.44
-1.635e-02,9.44
-1.634e-02,9.44
-1.632e-02,9.52
-1.630e-02,9.52
-1.629e-02,9.52
-1.627e-02,9.52
-1.626e-02,9.6
-1.624e-02,9.6
-1.622e-02,9.6
-1.621e-02,9.6
-1.619e-02,9.68
-1.618e-02,9.68
-1.616e-02,9.68
-1.614e-02,9.68
-1.613e-02,9.68
-1.611e-02,9.76
-1.610e-02,9.76
-1.608e-02,9.84
-1.606e-02,9.76
-1.605e-02,9.84
-1.603e-02,9.84
-1.602e-02,9.84
-1.600e-02,9.84
-1.598e-02,9.84
-1.597e-02,9.84
-1.595e-02,9.92
-1.594e-02,9.84
-1.592e-02,9.84
-1.590e-02,9.84
-1.589e-02,9.92
-1.587e-02,9.84
-1.586e-02,9.92
-1.584e-02,9.92
-1.582e-02,9.92
-1.581e-02,9.92
-1.579e-02,9.92
-1.578e-02,10
-1.576e-02,9.92
-1.574e-02,10
-1.573e-02,9.92
-1.571e-02,9.92
-1.570e-02,9.92
-1.568e-02,9.92
-1.566e-02,9.92
-1.565e-02,10
-1.563e-02,9.92
-1.562e-02,9.92
-1.560e-02,9.92
-1.558e-02,9.92
-1.557e-02,9.92
-1.555e-02,10
-1.554e-02,9.92
-1.552e-02,9.92
-1.550e-02,10
-1.549e-02,9.84
-1.547e-02,9.84
-1.546e-02,9.92
-1.544e-02,9.84
-1.542e-02,9.84
-1.541e-02,9.84
-1.539e-02,9.92
-1.538e-02,9.84
-1.536e-02,9.84
-1.534e-02,9.84
-1.533e-02,9.84
-1.531e-02,9.76
-1.530e-02,9.76
-1.528e-02,9.76
-1.526e-02,9.76
-1.525e-02,9.76
-1.523e-02,9.68
-1.522e-02,9.68
-1.520e-02,9.68
-1.518e-02,9.68
-1.517e-02,9.68
-1.515e-02,9.68
-1.514e-02,9.68
-1.512e-02,9.6
-1.510e-02,9.6
-1.509e-02,9.6
-1.507e-02,9.6
-1.506e-02,9.6
-1.504e-02,9.6
-1.502e-02,9.52
-1.501e-02,9.52
-1.499e-02,9.44
-1.498e-02,9.44
-1.496e-02,9.44
-1.494e-02,9.44
-1.493e-02,9.36
-1.491e-02,9.36
-1.490e-02,9.44
-1.488e-02,9.28
-1.486e-02,9.28
-1.485e-02,9.28
-1.483e-02,9.28
-1.482e-02,9.2
-1.480e-02,9.2
-1.478e-02,9.12
-1.477e-02,9.12
-1.475e-02,9.12
-1.474e-02,9.12
-1.472e-02,9.12
-1.470e-02,9.04
-1.469e-02,8.96
-1.467e-02,8.96
-1.466e-02,9.04
-1.464e-02,8.88
-1.462e-02,8.88
-1.461e-02,8.88
-1.459e-02,8.8
-1.458e-02,8.8
-1.456e-02,8.72
-1.454e-02,8.72
-1.453e-02,8.72
-1.451e-02,8.64
-1.450e-02,8.56
-1.448e-02,8.56
-1.446e-02,8.56
-1.445e-02,8.56
-1.443e-02,8.48
-1.442e-02,8.48
-1.440e-02,8.48
-1.438e-02,8.4
-1.437e-02,8.32
-1.435e-02,8.32
-1.434e-02,8.32
-1.432e-02,8.24
-1.430e-02,8.16
-1.429e-02,8.16
-1.427e-02,8.16
-1.426e-02,8.08
-1.424e-02,8.08
-1.422e-02,8
-1.421e-02,7.92
-1.419e-02,7.92
-1.418e-02,7.84
-1.416e-02,7.84
-1.414e-02,7.84
-1.413e-02,7.76
-1.411e-02,7.68
-1.410e-02,7.68
-1.408e-02,7.6
-1.406e-02,7.6
-1.405e-02,7.52
-1.403e-02,7.44
-1.402e-02,7.44
-1.400e-02,7.44
-1.398e-02,7.44
-1.397e-02,7.28
-1.395e-02,7.28
-1.394e-02,7.2
-1.392e-02,7.2
-1.390e-02,7.12
-1.389e-02,7.12
-1.387e-02,7.04
-1.386e-02,7.04
-1.384e-02,6.96
-1.382e-02,6.88
-1.381e-02,6.88
-1.379e-02,6.88
-1.378e-02,6.8
-1.376e-02,6.8
-1.374e-02,6.64
-1.373e-02,6.64
-1.371e-02,6.56
-1.370e-02,6.56
-1.368e-02,6.48
-1.366e-02,6.48
-1.365e-02,6.4
-1.363e-02,6.32
-1.362e-02,6.32
-1.360e-02,6.24
-1.358e-02,6.24
-1.357e-02,6.16
-1.355e-02,6.08
-1.354e-02,6
-1.352e-02,6
-1.350e-02,6
-1.349e-02,5.92
-1.347e-02,5.84
-1.346e-02,5.76
-1.344e-02,5.76
-1.342e-02,5.76
-1.341e-02,5.68
-1.339e-02,5.68
-1.338e-02,5.6
-1.336e-02,5.52
-1.334e-02,5.44
-1.333e-02,5.36
-1.331e-02,5.36
-1.330e-02,5.36
-1.328e-02,5.2
-1.326e-02,5.2
-1.325e-02,5.2
-1.323e-02,5.12
-1.322e-02,5.04
-1.320e-02,5.04
-1.318e-02,4.96
-1.317e-02,4.88
-1.315e-02,4.88
-1.314e-02,4.8
-1.312e-02,4.72
-1.310e-02,4.64
-1.309e-02,4.64
-1.307e-02,4.64
-1.306e-02,4.56
-1.304e-02,4.56
-1.302e-02,4.4
-1.301e-02,4.4
-1.299e-02,4.4
-1.298e-02,4.32
-1.296e-02,4.32
-1.294e-02,4.24
-1.293e-02,4.16
-1.291e-02,4.16
-1.290e-02,4.08
-1.288e-02,4
-1.286e-02,4
-1.285e-02,3.92
-1.283e-02,3.84
-1.282e-02,3.84
-1.280e-02,3.84
-1.278e-02,3.76
-1.277e-02,3.68
-1.275e-02,3.6
-1.274e-02,3.6
-1.272e-02,3.52
-1.270e-02,3.52
-1.269e-02,3.44
-1.267e-02,3.36
-1.266e-02,3.36
-1.264e-02,3.28
-1.262e-02,3.28
-1.261e-02,3.2
-1.259e-02,3.2
-1.258e-02,3.2
-1.256e-02,3.12
-1.254e-02,3.04
-1.253e-02,3.04
-1.251e-02,2.96
-1.250e-02,2.88
-1.248e-02,2.88
-1.246e-02,2.8
-1.245e-02,2.8
-1.243e-02,2.72
-1.242e-02,2.72
-1.240e-02,2.64
-1.238e-02,2.56
-1.237e-02,2.48
-1.235e-02,2.48
-1.234e-02,2.4
-1.232e-02,2.4
-1.230e-02,2.4
-1.229e-02,2.32
-1.227e-02,2.32
-1.226e-02,2.24
-1.224e-02,2.24
-1.222e-02,2.16
-1.221e-02,2.16
-1.219e-02,2.08
-1.218e-02,2.08
-1.216e-02,2
-1.214e-02,1.92
-1.213e-02,1.92
-1.211e-02,1.84
-1.210e-02,1.92
-1.208e-02,1.76
-1.206e-02,1.76
-1.205e-02,1.76
-1.203e-02,1.68
-1.202e-02,1.68
-1.200e-02,1.68
-1.198e-02,1.6
-1.197e-02,1.52
-1.195e-02,1.52
-1.194e-02,1.44
-1.192e-02,1.44
-1.190e-02,1.44
-1.189e-02,1.36
-1.187e-02,1.36
-1.186e-02,1.36
-1.184e-02,1.28
-1.182e-02,1.28
-1.181e-02,1.2
-1.179e-02,1.2
-1.178e-02,1.12
-1.176e-02,1.12
-1.174e-02,1.12
-1.173e-02,1.04
-1.171e-02,0.96
-1.170e-02,1.04
-1.168e-02,0.96
-1.166e-02,0.96
-1.165e-02,0.96
-1.163e-02,0.88
-1.162e-02,0.8
-1.160e-02,0.8
-1.158e-02,0.8
-1.157e-02,0.8
-1.155e-02,0.8
-1.154e-02,0.72
-1.152e-02,0.72
-1.150e-02,0.64
-1.149e-02,0.64
-1.147e-02,0.64
-1.146e-02,0.64
-1.144e-02,0.56
-1.142e-02,0.56
-1.141e-02,0.48
-1.139e-02,0.56
-1.138e-02,0.48
-1.136e-02,0.48
-1.134e-02,0.48
-1.133e-02,0.4
-1.131e-02,0.4
-1.130e-02,0.4
-1.128e-02,0.4
-1.126e-02,0.32
-1.125e-02,0.32
-1.123e-02,0.32
-1.122e-02,0.32
-1.120e-02,0.32
-1.118e-02,0.32
-1.117e-02,0.24
-1.115e-02,0.24
-1.114e-02,0.24
-1.112e-02,0.16
-1.110e-02,0.16
-1.109e-02,0.16
-1.107e-02,0.16
-1.106e-02,0.08
-1.104e-02,0.16
-1.102e-02,0.16
-1.101e-02,0.08
-1.099e-02,0.08
-1.098e-02,0.08
-1.096e-02,0.08
-1.094e-02,0.08
-1.093e-02,0.08
-1.091e-02,0.08
-1.090e-02,0
-1.088e-02,0.08
-1.086e-02,0.08
-1.085e-02,0.08
-1.083e-02,0.08
-1.082e-02,0.08
-1.080e-02,0
-1.078e-02,0
-1.077e-02,0
-1.075e-02,0.08
-1.074e-02,0
-1.072e-02,0
-1.070e-02,0
-1.069e-02,0
-1.067e-02,0
-1.066e-02,0
-1.064e-02,0
-1.062e-02,0
-1.061e-02,0
-1.059e-02,0.08
-1.058e-02,0.08
-1.056e-02,0
-1.054e-02,0
-1.053e-02,0.08
-1.051e-02,0
-1.050e-02,0.08
-1.048e-02,0.08
-1.046e-02,0
-1.045e-02,0
-1.043e-02,0.08
-1.042e-02,0
-1.040e-02,0.08
-1.038e-02,0.08
-1.037e-02,0
-1.035e-02,0.08
-1.034e-02,0.08
-1.032e-02,0.08
-1.030e-02,0.08
-1.029e-02,0.16
-1.027e-02,0.16
-1.026e-02,0.08
-1.024e-02,0.16
-1.022e-02,0.24
-1.021e-02,0.24
-1.019e-02,0.24
-1.018e-02,0.24
-1.016e-02,0.24
-1.014e-02,0.24
-1.013e-02,0.32
-1.011e-02,0.32
-1.010e-02,0.32
-1.008e-02,0.4
-1.006e-02,0.4
-1.005e-02,0.4
-1.003e-02,0.4
-1.002e-02,0.4
-1.000e-02,0.48
-9.984e-03,0.4
-9.968e-03,0.48
-9.952e-03,0.48
-9.936e-03,0.56
-9.920e-03,0.56
-9.904e-03,0.48
-9.888e-03,0.64
-9.872e-03,0.64
-9.856e-03,0.64
-9.840e-03,0.64
-9.824e-03,0.64
-9.808e-03,0.72
-9.792e-03,0.72
-9.776e-03,0.8
-9.760e-03,0.8
-9.744e-03,0.8
-9.728e-03,0.88
-9.712e-03,0.88
-9.696e-03,0.88
-9.680e-03,0.96
-9.664e-03,0.96
-9.648e-03,0.96
-9.632e-03,0.96
-9.616e-03,1.04
-9.600e-03,1.04
-9.584e-03,1.12
-9.568e-03,1.12
-9.552e-03,1.12
-9.536e-03,1.12
-9.520e-03,1.2
-9.504e-03,1.28
-9.488e-03,1.28
-9.472e-03,1.36
-9.456e-03,1.36
-9.440e-03,1.44
-9.424e-03,1.44
-9.408e-03,1.44
-9.392e-03,1.44
-9.376e-03,1.52
-9.360e-03,1.52
-9.344e-03,1.6
-9.328e-03,1.6
-9.312e-03,1.68
-9.296e-03,1.68
-9.280e-03,1.76
-9.264e-03,1.76
-9.248e-03,1.84
-9.232e-03,1.84
-9.216e-03,1.92
-9.200e-03,1.92
-9.184e-03,2
-9.168e-03,2.08
-9.152e-03,2.08
-9.136e-03,2.08
-9.120e-03,2.08
-9.104e-03,2.24
-9.088e-03,2.24
-9.072e-03,2.32
-9.056e-03,2.32
-9.040e-03,2.4
-9.024e-03,2.4
-9.008e-03,2.48
-8.992e-03,2.48
-8.976e-03,2.56
-8.960e-03,2.56
-8.944e-03,2.64
-8.928e-03,2.64
-8.912e-03,2.72
-8.896e-03,2.72
-8.880e-03,2.8
-8.864e-03,2.8
-8.848e-03,2.88
-8.832e-03,2.88
-8.816e-03,2.96
-8.800e-03,3.04
-8.784e-03,3.04
-8.768e-03,3.12
-8.752e-03,3.12
-8.736e-03,3.2
-8.720e-03,3.2
-8.704e-03,3.28
-8.688e-03,3.36
-8.672e-03,3.36
-8.656e-03,3.44
-8.640e-03,3.44
-8.624e-03,3.52
-8.608e-03,3.52
-8.592e-03,3.6
-8.576e-03,3.68
-8.560e-03,3.68
-8.544e-03,3.68
-8.528e-03,3.76
-8.512e-03,3.84
-8.496e-03,3.84
-8.480e-03,3.92
-8.464e-03,4
-8.448e-03,4.08
-8.432e-03,4.08
-8.416e-03,4.16
-8.400e-03,4.16
-8.384e-03,4.24
-8.368e-03,4.32
-8.352e-03,4.32
-8.336e-03,4.4
-8.320e-03,4.4
-8.304e-03,4.48
-8.288e-03,4.56
-8.272e-03,4.56
-8.256e-03,4.64
-8.240e-03,4.72
-8.224e-03,4.72
-8.208e-03,4.8
-8.192e-03,4.8
-8.176e-03,4.88
-8.160e-03,4.88
-8.144e-03,4.96
-8.128e-03,5.04
-8.112e-03,5.04
-8.096e-03,5.12
-8.080e-03,5.2
-8.064e-03,5.2
-8.048e-03,5.28
-8.032e-03,5.36
-8.016e-03,5.36
-8.000e-03,5.44
-7.984e-03,5.44
-7.968e-03,5.52
-7.952e-03,5.52
-7.936e-03,5.68
-7.920e-03,5.68
-7.904e-03,5.76
-7.888e-03,5.84
-7.872e-03,5.84
-7.856e-03,5.84
-7.840e-03,5.92
-7.824e-03,6
-7.808e-03,6
-7.792e-03,6.08
-7.776e-03,6.08
-7.760e-03,6.16
-7.744e-03,6.24
-7.728e-03,6.24
-7.712e-03,6.32
-7.696e-03,6.4
-7.680e-03,6.4
-7.664e-03,6.4
-7.648e-03,6.48
-7.632e-03,6.56
-7.616e-03,6.64
-7.600e-03,6.64
-7.584e-03,6.72
-7.568e-03,6.72
-7.552e-03,6.8
-7.536e-03,6.88
-7.520e-03,6.88
-7.504e-03,6.88
-7.488e-03,6.96
-7.472e-03,6.96
-7.456e-03,7.04
-7.440e-03,7.12
-7.424e-03,7.2
-7.408e-03,7.2
-7.392e-03,7.28
-7.376e-03,7.28
-7.360e-03,7.28
-7.344e-03,7.44
-7.328e-03,7.52
-7.312e-03,7.44
-7.296e-03,7.52
-7.280e-03,7.52
-7.264e-03,7.68
-7.248e-03,7.6
-7.232e-03,7.68
-7.216e-03,7.68
-7.200e-03,7.84
-7.184e-03,7.84
-7.168e-03,7.84
-7.152e-03,7.92
-7.136e-03,7.92
-7.120e-03,8
-7.104e-03,8
-7.088e-03,8.08
-7.072e-03,8.08
-7.056e-03,8.16
-7.040e-03,8.16
-7.024e-03,8.16
-7.008e-03,8.24
-6.992e-03,8.32
-6.976e-03,8.32
-6.960e-03,8.32
-6.944e-03,8.4
-6.928e-03,8.4
-6.912e-03,8.48
-6.896e-03,8.48
-6.880e-03,8.56
-6.864e-03,8.56
-6.848e-03,8.56
-6.832e-03,8.64
-6.816e-03,8.64
-6.800e-03,8.72
-6.784e-03,8.8
-6.768e-03,8.8
-6.752e-03,8.8
-6.736e-03,8.88
-6.720e-03,8.88
-6.704e-03,8.88
-6.688e-03,8.96
-6.672e-03,8.96
-6.656e-03,9.04
-6.640e-03,9.04
-6.624e-03,9.04
-6.608e-03,9.12
-6.592e-03,9.12
-6.576e-03,9.12
-6.560e-03,9.2
-6.544e-03,9.2
-6.528e-03,9.28
-6.512e-03,9.28
-6.496e-03,9.28
-6.480e-03,9.28
-6.464e-03,9.36
-6.448e-03,9.36
-6.432e-03,9.36
-6.416e-03,9.36
-6.400e-03,9.36
-6.384e-03,9.44
-6.368e-03,9.44
-6.352e-03,9.52
-6.336e-03,9.44
-6.320e-03,9.52
-6.304e-03,9.52
-6.288e-03,9.6
-6.272e-03,9.6
-6.256e-03,9.6
-6.240e-03,9.6
-6.224e-03,9.6
-6.208e-03,9.68
-6.192e-03,9.68
-6.176e-03,9.68
-6.160e-03,9.68
-6.144e-03,9.68
-6.128e-03,9.68
-6.112e-03,9.76
-6.096e-03,9.84
-6.080e-03,9.76
-6.064e-03,9.76
-6.048e-03,9.76
-6.032e-03,9.84
-6.016e-03,9.84
-6.000e-03,9.76
-5.984e-03,9.84
-5.968e-03,9.84
-5.952e-03,9.84
-5.936e-03,9.84
-5.920e-03,9.84
-5.904e-03,9.84
-5.888e-03,9.84
-5.872e-03,9.84
-5.856e-03,9.84
-5.840e-03,9.92
-5.824e-03,9.92
-5.808e-03,9.92
-5.792e-03,9.92
-5.776e-03,9.92
-5.760e-03,9.92
-5.744e-03,10
-5.728e-03,9.92
-5.712e-03,9.92
-5.696e-03,9.92
-5.680e-03,9.92
-5.664e-03,9.92
-5.648e-03,9.92
-5.632e-03,9.92
-5.616e-03,9.92
-5.600e-03,9.92
-5.584e-03,9.92
-5.568e-03,9.92
-5.552e-03,9.92
-5.536e-03,9.92
-5.520e-03,9.84
-5.504e-03,9.92
-5.488e-03,9.92
-5.472e-03,9.92
-5.456e-03,9.84
-5.440e-03,9.84
-5.424e-03,9.84
-5.408e-03,9.84
-5.392e-03,9.84
-5.376e-03,9.84
-5.360e-03,9.84
-5.344e-03,9.92
-5.328e-03,9.84
-5.312e-03,9.76
-5.296e-03,9.76
-5.280e-03,9.76
-5.264e-03,9.84
-5.248e-03,9.76
-5.232e-03,9.76
-5.216e-03,9.68
-5.200e-03,9.68
-5.184e-03,9.68
-5.168e-03,9.68
-5.152e-03,9.68
-5.136e-03,9.68
-5.120e-03,9.68
-5.104e-03,9.6
-5.088e-03,9.6
-5.072e-03,9.6
-5.056e-03,9.6
-5.040e-03,9.6
-5.024e-03,9.52
-5.008e-03,9.52
-4.992e-03,9.44
-4.976e-03,9.44
-4.960e-03,9.44
-4.944e-03,9.44
-4.928e-03,9.44
-4.912e-03,9.44
-4.896e-03,9.36
-4.880e-03,9.36
-4.864e-03,9.28
-4.848e-03,9.28
-4.832e-03,9.28
-4.816e-03,9.2
-4.800e-03,9.2
-4.784e-03,9.2
-4.768e-03,9.12
-4.752e-03,9.12
-4.736e-03,9.12
-4.720e-03,9.04
-4.704e-03,9.04
-4.688e-03,9.04
-4.672e-03,8.96
-4.656e-03,8.96
-4.640e-03,8.88
-4.624e-03,8.88
-4.608e-03,8.8
-4.592e-03,8.8
-4.576e-03,8.8
-4.560e-03,8.72
-4.544e-03,8.72
-4.528e-03,8.72
-4.512e-03,8.64
-4.496e-03,8.64
-4.480e-03,8.56
-4.464e-03,8.56
-4.448e-03,8.48
-4.432e-03,8.48
-4.416e-03,8.48
-4.400e-03,8.4
-4.384e-03,8.4
-4.368e-03,8.32
-4.352e-03,8.32
-4.336e-03,8.24
-4.320e-03,8.24
-4.304e-03,8.16
-4.288e-03,8.16
-4.272e-03,8.16
-4.256e-03,8.08
-4.240e-03,8
-4.224e-03,8
-4.208e-03,7.92
-4.192e-03,7.92
-4.176e-03,7.84
-4.160e-03,7.84
-4.144e-03,7.76
-4.128e-03,7.68
-4.112e-03,7.68
-4.096e-03,7.68
-4.080e-03,7.6
-4.064e-03,7.6
-4.048e-03,7.6
-4.032e-03,7.52
-4.016e-03,7.44
-4.000e-03,7.36
-3.984e-03,7.36
-3.968e-03,7.36
-3.952e-03,7.28
-3.936e-03,7.2
-3.920e-03,7.2
-3.904e-03,7.2
-3.888e-03,7.12
-3.872e-03,7.04
-3.856e-03,7.04
-3.840e-03,6.96
-3.824e-03,6.96
-3.808e-03,6.88
-3.792e-03,6.88
-3.776e-03,6.8
-3.760e-03,6.72
-3.744e-03,6.64
-3.728e-03,6.64
-3.712e-03,6.56
-3.696e-03,6.56
-3.680e-03,6.56
-3.664e-03,6.48
-3.648e-03,6.4
-3.632e-03,6.32
-3.616e-03,6.24
-3.600e-03,6.24
-3.584e-03,6.16
-3.568e-03,6.16
-3.552e-03,6.08
-3.536e-03,6.08
-3.520e-03,6
-3.504e-03,5.92
-3.488e-03,5.92
-3.472e-03,5.84
-3.456e-03,5.84
-3.440e-03,5.76
-3.424e-03,5.68
-3.408e-03,5.6
-3.392e-03,5.6
-3.376e-03,5.52
-3.360e-03,5.52
-3.344e-03,5.44
-3.328e-03,5.36
-3.312e-03,5.36
-3.296e-03,5.28
-3.280e-03,5.28
-3.264e-03,5.2
-3.248e-03,5.12
-3.232e-03,5.12
-3.216e-03,5.04
-3.200e-03,5.04
-3.184e-03,4.88
-3.168e-03,4.88
-3.152e-03,4.88
-3.136e-03,4.8
-3.120e-03,4.72
-3.104e-03,4.72
-3.088e-03,4.64
-3.072e-03,4.64
-3.056e-03,4.56
-3.040e-03,4.48
-3.024e-03,4.48
-3.008e-03,4.4
-2.992e-03,4.4
-2.976e-03,4.32
-2.960e-03,4.24
-2.944e-03,4.24
-2.928e-03,4.16
-2.912e-03,4.08
-2.896e-03,4.08
-2.880e-03,4
-2.864e-03,3.92
-2.848e-03,3.92
-2.832e-03,3.84
-2.816e-03,3.84
-2.800e-03,3.76
-2.784e-03,3.76
-2.768e-03,3.68
-2.752e-03,3.6
-2.736e-03,3.6
-2.720e-03,3.52
-2.704e-03,3.52
-2.688e-03,3.44
-2.672e-03,3.36
-2.656e-03,3.36
-2.640e-03,3.36
-2.624e-03,3.28
-2.608e-03,3.2
-2.592e-03,3.2
-2.576e-03,3.12
-2.560e-03,3.12
-2.544e-03,3.04
-2.528e-03,2.96
-2.512e-03,2.96
-2.496e-03,2.88
-2.480e-03,2.88
-2.464e-03,2.88
-2.448e-03,2.8
-2.432e-03,2.72
-2.416e-03,2.72
-2.400e-03,2.64
-2.384e-03,2.56
-2.368e-03,2.56
-2.352e-03,2.48
-2.336e-03,2.48
-2.320e-03,2.4
